{
  "heptools": {
    "version": "100_LHCB_7",
    "packages": [
      "AIDA",
      "Boost",
      "catboost",
      "chardet",
      "clhep",
      "cppgsl",
      "CppUnit",
      "doxygen",
      "eigen",
      "fastjet",
      "fftw",
      "flatbuffers",
      "gdb",
      "graphviz",
      "GSL",
      "HepMC",
      "HepPDT",
      "idna",
      "ipython",
      "blas",
      "libgit2",
      "libunwind",
      "libxml2",
      "lxml",
      "matplotlib",
      "mpmath",
      "networkx",
      "oracle",
      "pathos",
      "Python",
      "rangev3",
      "RELAX",
      "ROOT",
      "sqlite",
      "tbb",
      "gperftools",
      "tensorflow",
      "Vc",
      "vdt",
      "veccore",
      "vectorclass",
      "wcwidth",
      "XercesC",
      "xgboost",
      "xqilla",
      "xrootd",
      "packaging",
      "fmt",
      "six",
      "coverage",
      "jemalloc",
      "future",
      "jsonmcpp",
      "spdlog",
      "gperftools",
      "sortedcontainers",
      "yamlcpp",
      "lhapdf",
      "photos++",
      "pythia6",
      "pythia8",
      "rivet",
      "tauola++",
      "thepeg",
      "crmc",
      "yoda",
      "starlight",
      "powheg-box-v2",
      "rivet",
      "madgraph5amc",
      "herwig3"
    ]
  }
}
