{
    "heptools": {
    "version": "93",
    "packages":[
        "AIDA",
        "Boost",
        "eigen",
	"CLHEP",
	"COOL",
	"CORAL",
	"CppUnit",
	"Frontier_Client",
	"GSL",
	"HepMC",
	"HepPDT",
	"Python",
	"QMtest",
	"Qt",
	"RELAX",
	"ROOT",
	"XercesC",
	"fastjet",
	"fftw",
	"graphviz",
	"libunwind",
	"neurobayes_expert",
	"oracle",
	"pyanalysis",
	"pygraphics",
	"pytools",
	"sqlite",
	"tcmalloc",
	"vdt",
	"xqilla",
	"xrootd",
	"tbb",
	"rangev3",
	"cppgsl",
	"ipython",
    "Qt5",
    "Vc",
    "libgit2",
    "doxygen",
    "vectorclass",
    "gdb",
    "wcwidth",
    "lapack",
    "lxml",
    "libxml2",
    "catboost",
    "flatbuffers",
    "chardet",
    "idna",
    "veccore",
    "tensorflow",
    "xgboost"]
    }
}
